CRITICAL - 2023-01-04 09:24:40 --> Undefined variable $data
#0 C:\xampp\htdocs\captain chicken\app\Views\dashboardUser.php(72): CodeIgniter\Debug\Exceptions->errorHandler(2, 'Undefined varia...', 'C:\\xampp\\htdocs...', 72)
#1 C:\xampp\htdocs\captain chicken\system\View\View.php(210): include('C:\\xampp\\htdocs...')
#2 C:\xampp\htdocs\captain chicken\system\View\View.php(213): CodeIgniter\View\View->CodeIgniter\View\{closure}()
#3 C:\xampp\htdocs\captain chicken\system\Common.php(1089): CodeIgniter\View\View->render('dashboardUser', Array, true)
#4 C:\xampp\htdocs\captain chicken\app\Controllers\Pemesanan.php(160): view('dashboardUser', Array)
#5 C:\xampp\htdocs\captain chicken\system\CodeIgniter.php(832): App\Controllers\Pemesanan->emailuser('9')
#6 C:\xampp\htdocs\captain chicken\system\CodeIgniter.php(419): CodeIgniter\CodeIgniter->runController(Object(App\Controllers\Pemesanan))
#7 C:\xampp\htdocs\captain chicken\system\CodeIgniter.php(326): CodeIgniter\CodeIgniter->handleRequest(NULL, Object(Config\Cache), false)
#8 C:\xampp\htdocs\captain chicken\public\index.php(37): CodeIgniter\CodeIgniter->run()
#9 C:\xampp\htdocs\captain chicken\system\Commands\Server\rewrite.php(43): require_once('C:\\xampp\\htdocs...')
#10 {main}
CRITICAL - 2023-01-04 09:35:24 --> Undefined variable $pemesan
#0 C:\xampp\htdocs\captain chicken\app\Views\dashboardUser.php(72): CodeIgniter\Debug\Exceptions->errorHandler(2, 'Undefined varia...', 'C:\\xampp\\htdocs...', 72)
#1 C:\xampp\htdocs\captain chicken\system\View\View.php(210): include('C:\\xampp\\htdocs...')
#2 C:\xampp\htdocs\captain chicken\system\View\View.php(213): CodeIgniter\View\View->CodeIgniter\View\{closure}()
#3 C:\xampp\htdocs\captain chicken\system\Common.php(1089): CodeIgniter\View\View->render('dashboardUser', Array, true)
#4 C:\xampp\htdocs\captain chicken\app\Controllers\DashboardUser.php(21): view('dashboardUser', Array)
#5 C:\xampp\htdocs\captain chicken\system\CodeIgniter.php(832): App\Controllers\DashboardUser->index()
#6 C:\xampp\htdocs\captain chicken\system\CodeIgniter.php(419): CodeIgniter\CodeIgniter->runController(Object(App\Controllers\DashboardUser))
#7 C:\xampp\htdocs\captain chicken\system\CodeIgniter.php(326): CodeIgniter\CodeIgniter->handleRequest(NULL, Object(Config\Cache), false)
#8 C:\xampp\htdocs\captain chicken\public\index.php(37): CodeIgniter\CodeIgniter->run()
#9 C:\xampp\htdocs\captain chicken\system\Commands\Server\rewrite.php(43): require_once('C:\\xampp\\htdocs...')
#10 {main}
CRITICAL - 2023-01-04 09:35:30 --> Undefined variable $pemesan
#0 C:\xampp\htdocs\captain chicken\app\Views\dashboardUser.php(72): CodeIgniter\Debug\Exceptions->errorHandler(2, 'Undefined varia...', 'C:\\xampp\\htdocs...', 72)
#1 C:\xampp\htdocs\captain chicken\system\View\View.php(210): include('C:\\xampp\\htdocs...')
#2 C:\xampp\htdocs\captain chicken\system\View\View.php(213): CodeIgniter\View\View->CodeIgniter\View\{closure}()
#3 C:\xampp\htdocs\captain chicken\system\Common.php(1089): CodeIgniter\View\View->render('dashboardUser', Array, true)
#4 C:\xampp\htdocs\captain chicken\app\Controllers\DashboardUser.php(21): view('dashboardUser', Array)
#5 C:\xampp\htdocs\captain chicken\system\CodeIgniter.php(832): App\Controllers\DashboardUser->index()
#6 C:\xampp\htdocs\captain chicken\system\CodeIgniter.php(419): CodeIgniter\CodeIgniter->runController(Object(App\Controllers\DashboardUser))
#7 C:\xampp\htdocs\captain chicken\system\CodeIgniter.php(326): CodeIgniter\CodeIgniter->handleRequest(NULL, Object(Config\Cache), false)
#8 C:\xampp\htdocs\captain chicken\public\index.php(37): CodeIgniter\CodeIgniter->run()
#9 C:\xampp\htdocs\captain chicken\system\Commands\Server\rewrite.php(43): require_once('C:\\xampp\\htdocs...')
#10 {main}
CRITICAL - 2023-01-04 09:35:40 --> Undefined variable $pemesan
#0 C:\xampp\htdocs\captain chicken\app\Views\dashboardUser.php(72): CodeIgniter\Debug\Exceptions->errorHandler(2, 'Undefined varia...', 'C:\\xampp\\htdocs...', 72)
#1 C:\xampp\htdocs\captain chicken\system\View\View.php(210): include('C:\\xampp\\htdocs...')
#2 C:\xampp\htdocs\captain chicken\system\View\View.php(213): CodeIgniter\View\View->CodeIgniter\View\{closure}()
#3 C:\xampp\htdocs\captain chicken\system\Common.php(1089): CodeIgniter\View\View->render('dashboardUser', Array, true)
#4 C:\xampp\htdocs\captain chicken\app\Controllers\DashboardUser.php(21): view('dashboardUser', Array)
#5 C:\xampp\htdocs\captain chicken\system\CodeIgniter.php(832): App\Controllers\DashboardUser->index('9')
#6 C:\xampp\htdocs\captain chicken\system\CodeIgniter.php(419): CodeIgniter\CodeIgniter->runController(Object(App\Controllers\DashboardUser))
#7 C:\xampp\htdocs\captain chicken\system\CodeIgniter.php(326): CodeIgniter\CodeIgniter->handleRequest(NULL, Object(Config\Cache), false)
#8 C:\xampp\htdocs\captain chicken\public\index.php(37): CodeIgniter\CodeIgniter->run()
#9 C:\xampp\htdocs\captain chicken\system\Commands\Server\rewrite.php(43): require_once('C:\\xampp\\htdocs...')
#10 {main}
CRITICAL - 2023-01-04 09:35:49 --> Undefined variable $pemesan
#0 C:\xampp\htdocs\captain chicken\app\Views\dashboardUser.php(72): CodeIgniter\Debug\Exceptions->errorHandler(2, 'Undefined varia...', 'C:\\xampp\\htdocs...', 72)
#1 C:\xampp\htdocs\captain chicken\system\View\View.php(210): include('C:\\xampp\\htdocs...')
#2 C:\xampp\htdocs\captain chicken\system\View\View.php(213): CodeIgniter\View\View->CodeIgniter\View\{closure}()
#3 C:\xampp\htdocs\captain chicken\system\Common.php(1089): CodeIgniter\View\View->render('dashboardUser', Array, true)
#4 C:\xampp\htdocs\captain chicken\app\Controllers\DashboardUser.php(21): view('dashboardUser', Array)
#5 C:\xampp\htdocs\captain chicken\system\CodeIgniter.php(832): App\Controllers\DashboardUser->index('9')
#6 C:\xampp\htdocs\captain chicken\system\CodeIgniter.php(419): CodeIgniter\CodeIgniter->runController(Object(App\Controllers\DashboardUser))
#7 C:\xampp\htdocs\captain chicken\system\CodeIgniter.php(326): CodeIgniter\CodeIgniter->handleRequest(NULL, Object(Config\Cache), false)
#8 C:\xampp\htdocs\captain chicken\public\index.php(37): CodeIgniter\CodeIgniter->run()
#9 C:\xampp\htdocs\captain chicken\system\Commands\Server\rewrite.php(43): require_once('C:\\xampp\\htdocs...')
#10 {main}
CRITICAL - 2023-01-04 09:47:47 --> Undefined variable $pesanan
#0 C:\xampp\htdocs\captain chicken\app\Views\pesanan.php(109): CodeIgniter\Debug\Exceptions->errorHandler(2, 'Undefined varia...', 'C:\\xampp\\htdocs...', 109)
#1 C:\xampp\htdocs\captain chicken\system\View\View.php(210): include('C:\\xampp\\htdocs...')
#2 C:\xampp\htdocs\captain chicken\system\View\View.php(213): CodeIgniter\View\View->CodeIgniter\View\{closure}()
#3 C:\xampp\htdocs\captain chicken\system\Common.php(1089): CodeIgniter\View\View->render('pesanan', Array, true)
#4 C:\xampp\htdocs\captain chicken\app\Controllers\Pemesanan.php(51): view('pesanan', Array)
#5 C:\xampp\htdocs\captain chicken\system\CodeIgniter.php(832): App\Controllers\Pemesanan->pesanan('9')
#6 C:\xampp\htdocs\captain chicken\system\CodeIgniter.php(419): CodeIgniter\CodeIgniter->runController(Object(App\Controllers\Pemesanan))
#7 C:\xampp\htdocs\captain chicken\system\CodeIgniter.php(326): CodeIgniter\CodeIgniter->handleRequest(NULL, Object(Config\Cache), false)
#8 C:\xampp\htdocs\captain chicken\public\index.php(37): CodeIgniter\CodeIgniter->run()
#9 C:\xampp\htdocs\captain chicken\system\Commands\Server\rewrite.php(43): require_once('C:\\xampp\\htdocs...')
#10 {main}
CRITICAL - 2023-01-04 10:06:58 --> Undefined variable $uri
#0 C:\xampp\htdocs\captain chicken\app\Controllers\Pemesanan.php(42): CodeIgniter\Debug\Exceptions->errorHandler(2, 'Undefined varia...', 'C:\\xampp\\htdocs...', 42)
#1 C:\xampp\htdocs\captain chicken\system\CodeIgniter.php(832): App\Controllers\Pemesanan->pesanan('9')
#2 C:\xampp\htdocs\captain chicken\system\CodeIgniter.php(419): CodeIgniter\CodeIgniter->runController(Object(App\Controllers\Pemesanan))
#3 C:\xampp\htdocs\captain chicken\system\CodeIgniter.php(326): CodeIgniter\CodeIgniter->handleRequest(NULL, Object(Config\Cache), false)
#4 C:\xampp\htdocs\captain chicken\public\index.php(37): CodeIgniter\CodeIgniter->run()
#5 C:\xampp\htdocs\captain chicken\system\Commands\Server\rewrite.php(43): require_once('C:\\xampp\\htdocs...')
#6 {main}
CRITICAL - 2023-01-04 10:28:57 --> Undefined array key "status"
#0 C:\xampp\htdocs\captain chicken\app\Views\pesanan.php(99): CodeIgniter\Debug\Exceptions->errorHandler(2, 'Undefined array...', 'C:\\xampp\\htdocs...', 99)
#1 C:\xampp\htdocs\captain chicken\system\View\View.php(210): include('C:\\xampp\\htdocs...')
#2 C:\xampp\htdocs\captain chicken\system\View\View.php(213): CodeIgniter\View\View->CodeIgniter\View\{closure}()
#3 C:\xampp\htdocs\captain chicken\system\Common.php(1089): CodeIgniter\View\View->render('pesanan', Array, true)
#4 C:\xampp\htdocs\captain chicken\app\Controllers\Pemesanan.php(52): view('pesanan', Array)
#5 C:\xampp\htdocs\captain chicken\system\CodeIgniter.php(832): App\Controllers\Pemesanan->pesanan('9')
#6 C:\xampp\htdocs\captain chicken\system\CodeIgniter.php(419): CodeIgniter\CodeIgniter->runController(Object(App\Controllers\Pemesanan))
#7 C:\xampp\htdocs\captain chicken\system\CodeIgniter.php(326): CodeIgniter\CodeIgniter->handleRequest(NULL, Object(Config\Cache), false)
#8 C:\xampp\htdocs\captain chicken\public\index.php(37): CodeIgniter\CodeIgniter->run()
#9 C:\xampp\htdocs\captain chicken\system\Commands\Server\rewrite.php(43): require_once('C:\\xampp\\htdocs...')
#10 {main}
CRITICAL - 2023-01-04 10:31:14 --> Undefined array key "status"
#0 C:\xampp\htdocs\captain chicken\app\Views\pesanan.php(92): CodeIgniter\Debug\Exceptions->errorHandler(2, 'Undefined array...', 'C:\\xampp\\htdocs...', 92)
#1 C:\xampp\htdocs\captain chicken\system\View\View.php(210): include('C:\\xampp\\htdocs...')
#2 C:\xampp\htdocs\captain chicken\system\View\View.php(213): CodeIgniter\View\View->CodeIgniter\View\{closure}()
#3 C:\xampp\htdocs\captain chicken\system\Common.php(1089): CodeIgniter\View\View->render('pesanan', Array, true)
#4 C:\xampp\htdocs\captain chicken\app\Controllers\Pemesanan.php(52): view('pesanan', Array)
#5 C:\xampp\htdocs\captain chicken\system\CodeIgniter.php(832): App\Controllers\Pemesanan->pesanan('9')
#6 C:\xampp\htdocs\captain chicken\system\CodeIgniter.php(419): CodeIgniter\CodeIgniter->runController(Object(App\Controllers\Pemesanan))
#7 C:\xampp\htdocs\captain chicken\system\CodeIgniter.php(326): CodeIgniter\CodeIgniter->handleRequest(NULL, Object(Config\Cache), false)
#8 C:\xampp\htdocs\captain chicken\public\index.php(37): CodeIgniter\CodeIgniter->run()
#9 C:\xampp\htdocs\captain chicken\system\Commands\Server\rewrite.php(43): require_once('C:\\xampp\\htdocs...')
#10 {main}
CRITICAL - 2023-01-04 12:26:25 --> Undefined variable $user
#0 C:\xampp\htdocs\captain chicken\app\Views\pesanan_adm.php(70): CodeIgniter\Debug\Exceptions->errorHandler(2, 'Undefined varia...', 'C:\\xampp\\htdocs...', 70)
#1 C:\xampp\htdocs\captain chicken\system\View\View.php(210): include('C:\\xampp\\htdocs...')
#2 C:\xampp\htdocs\captain chicken\system\View\View.php(213): CodeIgniter\View\View->CodeIgniter\View\{closure}()
#3 C:\xampp\htdocs\captain chicken\system\Common.php(1089): CodeIgniter\View\View->render('pesanan_adm', Array, true)
#4 C:\xampp\htdocs\captain chicken\app\Controllers\AdminDashboard.php(82): view('pesanan_adm', Array)
#5 C:\xampp\htdocs\captain chicken\system\CodeIgniter.php(832): App\Controllers\AdminDashboard->pesanan_adm()
#6 C:\xampp\htdocs\captain chicken\system\CodeIgniter.php(419): CodeIgniter\CodeIgniter->runController(Object(App\Controllers\AdminDashboard))
#7 C:\xampp\htdocs\captain chicken\system\CodeIgniter.php(326): CodeIgniter\CodeIgniter->handleRequest(NULL, Object(Config\Cache), false)
#8 C:\xampp\htdocs\captain chicken\public\index.php(37): CodeIgniter\CodeIgniter->run()
#9 C:\xampp\htdocs\captain chicken\system\Commands\Server\rewrite.php(43): require_once('C:\\xampp\\htdocs...')
#10 {main}
CRITICAL - 2023-01-04 12:44:20 --> Undefined variable $id
#0 C:\xampp\htdocs\captain chicken\app\Views\pesanan_adm.php(77): CodeIgniter\Debug\Exceptions->errorHandler(2, 'Undefined varia...', 'C:\\xampp\\htdocs...', 77)
#1 C:\xampp\htdocs\captain chicken\system\View\View.php(210): include('C:\\xampp\\htdocs...')
#2 C:\xampp\htdocs\captain chicken\system\View\View.php(213): CodeIgniter\View\View->CodeIgniter\View\{closure}()
#3 C:\xampp\htdocs\captain chicken\system\Common.php(1089): CodeIgniter\View\View->render('pesanan_adm', Array, true)
#4 C:\xampp\htdocs\captain chicken\app\Controllers\AdminDashboard.php(82): view('pesanan_adm', Array)
#5 C:\xampp\htdocs\captain chicken\system\CodeIgniter.php(832): App\Controllers\AdminDashboard->pesanan_adm()
#6 C:\xampp\htdocs\captain chicken\system\CodeIgniter.php(419): CodeIgniter\CodeIgniter->runController(Object(App\Controllers\AdminDashboard))
#7 C:\xampp\htdocs\captain chicken\system\CodeIgniter.php(326): CodeIgniter\CodeIgniter->handleRequest(NULL, Object(Config\Cache), false)
#8 C:\xampp\htdocs\captain chicken\public\index.php(37): CodeIgniter\CodeIgniter->run()
#9 C:\xampp\htdocs\captain chicken\system\Commands\Server\rewrite.php(43): require_once('C:\\xampp\\htdocs...')
#10 {main}
CRITICAL - 2023-01-04 13:02:20 --> Undefined array key "id_barang"
#0 C:\xampp\htdocs\captain chicken\app\Views\pesanan_adm.php(77): CodeIgniter\Debug\Exceptions->errorHandler(2, 'Undefined array...', 'C:\\xampp\\htdocs...', 77)
#1 C:\xampp\htdocs\captain chicken\system\View\View.php(210): include('C:\\xampp\\htdocs...')
#2 C:\xampp\htdocs\captain chicken\system\View\View.php(213): CodeIgniter\View\View->CodeIgniter\View\{closure}()
#3 C:\xampp\htdocs\captain chicken\system\Common.php(1089): CodeIgniter\View\View->render('pesanan_adm', Array, true)
#4 C:\xampp\htdocs\captain chicken\app\Controllers\AdminDashboard.php(82): view('pesanan_adm', Array)
#5 C:\xampp\htdocs\captain chicken\system\CodeIgniter.php(832): App\Controllers\AdminDashboard->pesanan_adm()
#6 C:\xampp\htdocs\captain chicken\system\CodeIgniter.php(419): CodeIgniter\CodeIgniter->runController(Object(App\Controllers\AdminDashboard))
#7 C:\xampp\htdocs\captain chicken\system\CodeIgniter.php(326): CodeIgniter\CodeIgniter->handleRequest(NULL, Object(Config\Cache), false)
#8 C:\xampp\htdocs\captain chicken\public\index.php(37): CodeIgniter\CodeIgniter->run()
#9 C:\xampp\htdocs\captain chicken\system\Commands\Server\rewrite.php(43): require_once('C:\\xampp\\htdocs...')
#10 {main}
CRITICAL - 2023-01-04 13:02:46 --> Trying to access array offset on value of type null
#0 C:\xampp\htdocs\captain chicken\app\Views\dashboard.php(76): CodeIgniter\Debug\Exceptions->errorHandler(2, 'Trying to acces...', 'C:\\xampp\\htdocs...', 76)
#1 C:\xampp\htdocs\captain chicken\system\View\View.php(210): include('C:\\xampp\\htdocs...')
#2 C:\xampp\htdocs\captain chicken\system\View\View.php(213): CodeIgniter\View\View->CodeIgniter\View\{closure}()
#3 C:\xampp\htdocs\captain chicken\system\Common.php(1089): CodeIgniter\View\View->render('dashboard', Array, true)
#4 C:\xampp\htdocs\captain chicken\app\Controllers\Dashboard.php(39): view('dashboard', Array)
#5 C:\xampp\htdocs\captain chicken\system\CodeIgniter.php(832): App\Controllers\Dashboard->update('9')
#6 C:\xampp\htdocs\captain chicken\system\CodeIgniter.php(419): CodeIgniter\CodeIgniter->runController(Object(App\Controllers\Dashboard))
#7 C:\xampp\htdocs\captain chicken\system\CodeIgniter.php(326): CodeIgniter\CodeIgniter->handleRequest(NULL, Object(Config\Cache), false)
#8 C:\xampp\htdocs\captain chicken\public\index.php(37): CodeIgniter\CodeIgniter->run()
#9 C:\xampp\htdocs\captain chicken\system\Commands\Server\rewrite.php(43): require_once('C:\\xampp\\htdocs...')
#10 {main}
CRITICAL - 2023-01-04 13:06:43 --> Invalid file: adm_view.php
#0 C:\xampp\htdocs\captain chicken\system\View\View.php(198): CodeIgniter\Exceptions\FrameworkException::forInvalidFile('adm_view.php')
#1 C:\xampp\htdocs\captain chicken\system\Common.php(1089): CodeIgniter\View\View->render('adm_view', Array, true)
#2 C:\xampp\htdocs\captain chicken\app\Controllers\AdminDashboard.php(96): view('adm_view', Array)
#3 C:\xampp\htdocs\captain chicken\system\CodeIgniter.php(832): App\Controllers\AdminDashboard->adm_view('9')
#4 C:\xampp\htdocs\captain chicken\system\CodeIgniter.php(419): CodeIgniter\CodeIgniter->runController(Object(App\Controllers\AdminDashboard))
#5 C:\xampp\htdocs\captain chicken\system\CodeIgniter.php(326): CodeIgniter\CodeIgniter->handleRequest(NULL, Object(Config\Cache), false)
#6 C:\xampp\htdocs\captain chicken\public\index.php(37): CodeIgniter\CodeIgniter->run()
#7 C:\xampp\htdocs\captain chicken\system\Commands\Server\rewrite.php(43): require_once('C:\\xampp\\htdocs...')
#8 {main}
CRITICAL - 2023-01-04 13:15:27 --> Undefined array key "nama"
#0 C:\xampp\htdocs\captain chicken\app\Views\templates\adm_view.php(8): CodeIgniter\Debug\Exceptions->errorHandler(2, 'Undefined array...', 'C:\\xampp\\htdocs...', 8)
#1 C:\xampp\htdocs\captain chicken\system\View\View.php(210): include('C:\\xampp\\htdocs...')
#2 C:\xampp\htdocs\captain chicken\system\View\View.php(213): CodeIgniter\View\View->CodeIgniter\View\{closure}()
#3 C:\xampp\htdocs\captain chicken\system\Common.php(1089): CodeIgniter\View\View->render('templates/adm_v...', Array, true)
#4 C:\xampp\htdocs\captain chicken\app\Controllers\AdminDashboard.php(96): view('templates/adm_v...', Array)
#5 C:\xampp\htdocs\captain chicken\system\CodeIgniter.php(832): App\Controllers\AdminDashboard->adm_view('9')
#6 C:\xampp\htdocs\captain chicken\system\CodeIgniter.php(419): CodeIgniter\CodeIgniter->runController(Object(App\Controllers\AdminDashboard))
#7 C:\xampp\htdocs\captain chicken\system\CodeIgniter.php(326): CodeIgniter\CodeIgniter->handleRequest(NULL, Object(Config\Cache), false)
#8 C:\xampp\htdocs\captain chicken\public\index.php(37): CodeIgniter\CodeIgniter->run()
#9 C:\xampp\htdocs\captain chicken\system\Commands\Server\rewrite.php(43): require_once('C:\\xampp\\htdocs...')
#10 {main}
ERROR - 2023-01-04 14:06:02 --> Email: sendWithSmtp throwed fsockopen(): SSL: Handshake timed out
